{
"HR*UR": "{^}{>}",
"HR-PLD": "{MODE:LOWER}",
"HRUR": "{>}",
"HRURD": "{*>}",
"K-PLD": "{MODE:CAPS}",
"KHR-PLD": "{MODE:CAMEL}",
"KPAD": "{*-|}",
"KPHRA": "{<}",
"KPHRA*": "{^}{<}",
"KPHRAD": "{*<}",
"KR-PLD": "{MODE:CAMEL}",
"R*PT": "{*+}",
"R-PLD": "{MODE:RESET}{}",
"S*PS": "{*?}",
"S-PD": "{*?}",
"S-PLD": "{MODE:SNAKE}",
"SKWR": "{PLOVER:TOGGLE}",
"STPH-PLD": "{MODE:SNAKE}",
"T*T": "{*}",
"T-PLD": "{MODE:TITLE}",
"THR-PLD": "{MODE:TITLE}",
"TK*LS": "{*!}",
"TK-LSD": "{*!}",
"TK-PLD": "{MODE:SET_SPACE:}"
}
