{
"-PLT": "{^ment}",
"ABGS/HROLT": "axolotl",
"AL/RAOEUT": "alright",
"HR-RT": "alright",
"KHEUBG/TREUS": "chickatrice",
"KOBG/TREUS": "cockatrice",
"KOPB/HRAPBG": "conlang",
"KOPB/TPEUG": "config",
"KPAPBD": "expand",
"KPR-D": "xkcd",
"KW*PL": "{¿^}",
"KWA/HRA": "koala",
"KWR*URS": "yourself",
"KWREPB/TKOR": "Yendor",
"KWROED": "yesterday",
"O*/AE": "o'",
"P*ERP": "perp",
"PAD/WAD": "Paduaed",
"PERP": "pepper",
"PERT/TPAOEU/KAEUGS": "petrification",
"PET/REU/TPEU/KAEUGS": "petrification",
"PET/TREU/TPEU/KAEUGS": "petrification",
"PH-RB": "{^—^}",
"PHAO*EPL": "meem",
"PHEFPBLG": "message",
"PHEPBLT": "mental",
"POL/PHOFR": "polymorph",
"PR-FPB": "person",
"PREUPT": "prescriptive",
"S*F": "science fiction",
"S-F": "scifi",
"S-F/S-F": "science fiction",
"SAEFRPB": "search",
"SAOERBGT": "secret",
"SKRAPL": "scram",
"SKWREURG": "kajigger",
"SPRO*FPBG": "sprovnik",
"SREL/ER": "developer",
"SREPL": "develop",
"SREPL/ER": "developer",
"-RBLT": "{^/^}",
"-FPGS": "{^\\^}",
"SRUT": "as a result",
"ST*": "it is",
"STKPOES": "dispose",
"STKPOEZ": "dispose",
"STPHAPL": "tsunami",
"STPHRAOEUS": "very nice",
"STRAEUGS": "demonstration",
"STRAGS": "demonstration",
"TKEUS/APL/PWEUG/WAEUGS": "disambiguation",
"TKEUS/APL/PWEUG/WAEUT": "disambiguate",
"TKEUZ/APL/PWEUG/WAEUGS": "disambiguation",
"TKPALT": "default",
"TKPER": "defer",
"TKPW*PBLG": "{⸘^}",
"TKPW-F": "give",
"TKPW-PBLG": "{^‽}",
"TKREUPT": "descriptive",
"TKUP": "duplicate",
"TP*BG": "{¡^}",
"TP-BG": "{!}",
"TP/TP": "iff",
"TPAEUF/REUT": "favorite",
"TPAF": "favorite",
"TPAO": "foo",
"TPAO/TREUS": "footrice",
"TPAOUT": "futile",
"TPH-RB": "{^–^}",
"TPHEPBL": "fundamental",
"TPHEPBLT": "fundamental",
"TPHERPBL": "internal",
"TPOFRPB": "fortune",
"TPOFRPBT": "fortunate",
"TPRAPBLG": "fragile",
"TPUPBD/PHEPBT/-L": "fundamental"
}
